…
Below are some examples of how to use the key functions in the package.
See the package site for more detailed information and examples.

``` r
library(fantasy)
```

    #> ℹ Loading fantasy
    #> ℹ Enabling function caching...

``` r
# Get all fixtures from the current season
get_fixture_list()
#> # A tibble: 380 × 11
#>       id gameweek finished kickoff_time        minutes home_team home_…¹ home_…²
#>    <int>    <int> <lgl>    <dttm>                <int> <chr>       <int>   <int>
#>  1     1        1 TRUE     2022-08-05 00:00:00      90 CRY             0       3
#>  2     4        1 TRUE     2022-08-06 00:00:00      90 FUL             2       5
#>  3     2        1 TRUE     2022-08-06 00:00:00      90 BOU             2       2
#>  4     5        1 TRUE     2022-08-06 00:00:00      90 LEE             2       2
#>  5     7        1 TRUE     2022-08-06 00:00:00      90 NEW             2       2
#>  6     8        1 TRUE     2022-08-06 00:00:00      90 TOT             4       2
#>  7     3        1 TRUE     2022-08-06 00:00:00      90 EVE             0       4
#>  8     6        1 TRUE     2022-08-07 00:00:00      90 LEI             2       2
#>  9     9        1 TRUE     2022-08-07 00:00:00      90 MUN             1       2
#> 10    10        1 TRUE     2022-08-07 00:00:00      90 WHU             0       5
#> # … with 370 more rows, 3 more variables: away_team <chr>, away_score <int>,
#> #   away_difficulty <int>, and abbreviated variable names ¹​home_score,
#> #   ²​home_difficulty
#> # ℹ Use `print(n = ...)` to see more rows, and `colnames()` to see all variable names

# Get stats from a particular fixture, by ID
get_fixture_stats(fixture_id = 2)
#> # A tibble: 42 × 5
#>    fixture_id stat         team  player       value
#>         <int> <chr>        <chr> <chr>        <int>
#>  1          2 goals_scored home  Moore            1
#>  2          2 goals_scored home  Lerma            1
#>  3          2 assists      home  Kelly            1
#>  4          2 yellow_cards home  Smith            1
#>  5          2 yellow_cards home  Pearson          1
#>  6          2 yellow_cards home  Billing          1
#>  7          2 yellow_cards away  Ings             1
#>  8          2 yellow_cards away  Douglas Luiz     1
#>  9          2 yellow_cards away  Ramsey           1
#> 10          2 saves        home  Travers          2
#> # … with 32 more rows
#> # ℹ Use `print(n = ...)` to see more rows
…
# Get all players info
get_players()
#> # A tibble: 584 × 56
#>       id name         known…¹ posit…²  team team_…³  cost points point…⁴ point…⁵
#>    <dbl> <chr>        <chr>   <chr>   <dbl>   <dbl> <dbl>  <dbl>   <dbl>   <dbl>
#>  1     1 Cédric Alve… Cédric  DEF         1       3   4.4      0       0     0  
#>  2     3 Granit Xhaka Xhaka   MID         1       3   5       12      14     7  
#>  3     4 Mohamed Eln… Elneny  MID         1       3   4.4      0       0     0  
#>  4     5 Rob Holding  Holding DEF         1       3   4.4      0       0     0  
#>  5     6 Thomas Part… Partey  MID         1       3   5        2       5     2.5
#>  6     7 Martin Ødeg… Ødegaa… MID         1       3   6.5      2       5     2.5
#>  7     8 Kieran Tier… Tierney DEF         1       3   5        1       2     1  
#>  8     9 Nicolas Pépé Pépé    MID         1       3   5.4      0       0     0  
#>  9    10 Benjamin Wh… White   DEF         1       3   4.5      1       6     3  
#> 10    11 Eddie Nketi… Nketiah FWD         1       3   6.9      1       2     1  
#> # … with 574 more rows, 46 more variables: cost_change_recent <dbl>,
#> #   cost_change_from_start <dbl>, form <dbl>, value_form <dbl>,
#> #   value_season <dbl>, selected_by_pct <dbl>, transfers_in_recent <dbl>,
#> #   transfers_in_total <dbl>, transfers_out_recent <dbl>,
#> #   transfers_out_total <dbl>, expected_points_this_week <dbl>,
#> #   expected_points_next_week <dbl>, minutes <dbl>, goals_scored <dbl>,
#> #   assists <dbl>, clean_sheets <dbl>, goals_conceded <dbl>, own_goals <dbl>, …
#> # ℹ Use `print(n = ...)` to see more rows, and `colnames()` to see all variable names

# Get a particular player's season statistics
get_player_summary(player_id = 283)
#> # A tibble: 38 × 33
#>    element_id fixture_id round kickoff_time        at_home team_h team_…¹ team_a
#>         <dbl>      <int> <int> <dttm>              <lgl>   <chr>    <int> <chr> 
#>  1        283          4     1 2022-08-06 00:00:00 FALSE   FUL          2 LIV   
#>  2        283         16     2 2022-08-15 00:00:00 TRUE    LIV          1 CRY   
#>  3        283         27     3 2022-08-22 00:00:00 FALSE   MUN         NA LIV   
#>  4        283         36     4 2022-08-27 00:00:00 TRUE    LIV         NA BOU   
#>  5        283         48     5 2022-08-31 00:00:00 TRUE    LIV         NA NEW   
#>  6        283         55     6 2022-09-03 00:00:00 FALSE   EVE         NA LIV   
#>  7        283         67     7 2022-09-10 00:00:00 TRUE    LIV         NA WOL   
#>  8        283         74     8 2022-09-18 00:00:00 FALSE   CHE         NA LIV   
#>  9        283         87     9 2022-10-01 00:00:00 TRUE    LIV         NA BHA   
#> 10        283         91    10 2022-10-09 00:00:00 FALSE   ARS         NA LIV   
#> # … with 28 more rows, 25 more variables: team_a_score <int>,
#> #   total_points <int>, difficulty <int>, minutes <int>, goals_scored <int>,
#> #   assists <int>, clean_sheets <int>, goals_conceded <int>, own_goals <int>,
#> #   penalties_saved <int>, penalties_missed <int>, yellow_cards <int>,
#> #   red_cards <int>, saves <int>, bonus <int>, bps <int>, influence <chr>,
#> #   creativity <chr>, threat <chr>, ict_index <chr>, value <int>,
#> #   transfers_balance <int>, selected <int>, transfers_in <int>, …
#> # ℹ Use `print(n = ...)` to see more rows, and `colnames()` to see all variable names
…
### Non-FPL API functions
# Get predicted lineups from fantasyfootballscout.co.uk
get_predicted_lineups()
#> # A tibble: 220 × 3
#>    team    selection player           
#>    <chr>       <dbl> <chr>            
#>  1 Arsenal         1 Ramsdale         
#>  2 Arsenal         2 White            
#>  3 Arsenal         3 Saliba           
#>  4 Arsenal         4 Gabriel Magalhães
#>  5 Arsenal         5 Zinchenko        
#>  6 Arsenal         6 Odegaard         
#>  7 Arsenal         7 Partey           
#>  8 Arsenal         8 Xhaka            
#>  9 Arsenal         9 Saka             
#> 10 Arsenal        10 Jesus            
#> # … with 210 more rows
#> # ℹ Use `print(n = ...)` to see more rows
```
